<?xml version="1.0" encoding="UTF-8" standalone="no"?>
<svg
   xmlns:dc="http://purl.org/dc/elements/1.1/"
   xmlns:cc="http://creativecommons.org/ns#"
   xmlns:rdf="http://www.w3.org/1999/02/22-rdf-syntax-ns#"
   xmlns:svg="http://www.w3.org/2000/svg"
   xmlns="http://www.w3.org/2000/svg"
   xmlns:sodipodi="http://sodipodi.sourceforge.net/DTD/sodipodi-0.dtd"
   xmlns:inkscape="http://www.inkscape.org/namespaces/inkscape"
   width="348.88022mm"
   height="327.76236mm"
   viewBox="0 0 348.88022 327.76236"
   version="1.1"
   id="svg8"
   inkscape:version="1.0beta2 (2b71d25, 2019-12-03)"
   sodipodi:docname="reentrancy-bug.svg">
  <defs
     id="defs2">
    <marker
       inkscape:isstock="true"
       style="overflow:visible"
       id="TriangleOutM"
       refX="0.0"
       refY="0.0"
       orient="auto"
       inkscape:stockid="TriangleOutM">
      <path
         transform="scale(0.4)"
         style="fill-rule:evenodd;stroke:#000000;stroke-width:1pt;stroke-opacity:1;fill:#000000;fill-opacity:1"
         d="M 5.77,0.0 L -2.88,5.0 L -2.88,-5.0 L 5.77,0.0 z "
         id="path2512" />
    </marker>
    <marker
       inkscape:isstock="true"
       style="overflow:visible;"
       id="Arrow2Mend"
       refX="0.0"
       refY="0.0"
       orient="auto"
       inkscape:stockid="Arrow2Mend">
      <path
         transform="scale(0.6) rotate(180) translate(0,0)"
         d="M 8.7185878,4.0337352 L -2.2072895,0.016013256 L 8.7185884,-4.0017078 C 6.9730900,-1.6296469 6.9831476,1.6157441 8.7185878,4.0337352 z "
         style="fill-rule:evenodd;stroke-width:0.625;stroke-linejoin:round;stroke:#000000;stroke-opacity:1;fill:#000000;fill-opacity:1"
         id="path2394" />
    </marker>
    <marker
       inkscape:isstock="true"
       style="overflow:visible;"
       id="Arrow1Send"
       refX="0.0"
       refY="0.0"
       orient="auto"
       inkscape:stockid="Arrow1Send">
      <path
         transform="scale(0.2) rotate(180) translate(6,0)"
         style="fill-rule:evenodd;stroke:#000000;stroke-width:1pt;stroke-opacity:1;fill:#000000;fill-opacity:1"
         d="M 0.0,0.0 L 5.0,-5.0 L -12.5,0.0 L 5.0,5.0 L 0.0,0.0 z "
         id="path2382" />
    </marker>
    <marker
       inkscape:isstock="true"
       style="overflow:visible;"
       id="marker2630"
       refX="0.0"
       refY="0.0"
       orient="auto"
       inkscape:stockid="Arrow1Lend">
      <path
         transform="scale(0.8) rotate(180) translate(12.5,0)"
         style="fill-rule:evenodd;stroke:#000000;stroke-width:1pt;stroke-opacity:1;fill:#000000;fill-opacity:1"
         d="M 0.0,0.0 L 5.0,-5.0 L -12.5,0.0 L 5.0,5.0 L 0.0,0.0 z "
         id="path2370" />
    </marker>
    <marker
       inkscape:isstock="true"
       style="overflow:visible"
       id="marker10992"
       refX="0"
       refY="0"
       orient="auto"
       inkscape:stockid="Arrow1Mend">
      <path
         transform="matrix(-0.4,0,0,-0.4,-4,0)"
         style="fill:#000000;fill-opacity:1;fill-rule:evenodd;stroke:#000400;stroke-width:1pt;stroke-opacity:1"
         d="M 0,0 5,-5 -12.5,0 5,5 Z"
         id="path10990"
         inkscape:connector-curvature="0" />
    </marker>
    <marker
       inkscape:isstock="true"
       style="overflow:visible"
       id="marker10856"
       refX="0"
       refY="0"
       orient="auto"
       inkscape:stockid="Arrow1Mend">
      <path
         transform="matrix(-0.4,0,0,-0.4,-4,0)"
         style="fill:#eef4d7;fill-opacity:1;fill-rule:evenodd;stroke:#000000;stroke-width:1pt;stroke-opacity:1"
         d="M 0,0 5,-5 -12.5,0 5,5 Z"
         id="path10854"
         inkscape:connector-curvature="0" />
    </marker>
    <marker
       inkscape:stockid="Arrow1Mend"
       orient="auto"
       refY="0"
       refX="0"
       id="marker10606"
       style="overflow:visible"
       inkscape:isstock="true">
      <path
         inkscape:connector-curvature="0"
         id="path10604"
         d="M 0,0 5,-5 -12.5,0 5,5 Z"
         style="fill:#eef4d7;fill-opacity:1;fill-rule:evenodd;stroke:#000000;stroke-width:1pt;stroke-opacity:1"
         transform="matrix(-0.4,0,0,-0.4,-4,0)" />
    </marker>
    <marker
       inkscape:stockid="Arrow1Mend"
       orient="auto"
       refY="0"
       refX="0"
       id="marker3561"
       style="overflow:visible"
       inkscape:isstock="true"
       inkscape:collect="always">
      <path
         id="path3559"
         d="M 0,0 5,-5 -12.5,0 5,5 Z"
         style="fill:#000000;fill-opacity:1;fill-rule:evenodd;stroke:#000000;stroke-width:1pt;stroke-opacity:1"
         transform="matrix(-0.4,0,0,-0.4,-4,0)"
         inkscape:connector-curvature="0" />
    </marker>
    <marker
       inkscape:isstock="true"
       style="overflow:visible"
       id="marker3250"
       refX="0"
       refY="0"
       orient="auto"
       inkscape:stockid="Arrow1Mend"
       inkscape:collect="always">
      <path
         transform="matrix(-0.4,0,0,-0.4,-4,0)"
         style="fill:#000000;fill-opacity:1;fill-rule:evenodd;stroke:#000000;stroke-width:1pt;stroke-opacity:1"
         d="M 0,0 5,-5 -12.5,0 5,5 Z"
         id="path3248"
         inkscape:connector-curvature="0" />
    </marker>
    <marker
       inkscape:stockid="Arrow1Mend"
       orient="auto"
       refY="0"
       refX="0"
       id="Arrow1Mend"
       style="overflow:visible"
       inkscape:isstock="true"
       inkscape:collect="always">
      <path
         id="path914"
         d="M 0,0 5,-5 -12.5,0 5,5 Z"
         style="fill:#000000;fill-opacity:1;fill-rule:evenodd;stroke:#000000;stroke-width:1pt;stroke-opacity:1"
         transform="matrix(-0.4,0,0,-0.4,-4,0)"
         inkscape:connector-curvature="0" />
    </marker>
    <marker
       inkscape:stockid="Arrow1Lend"
       orient="auto"
       refY="0"
       refX="0"
       id="marker1231"
       style="overflow:visible"
       inkscape:isstock="true">
      <path
         id="path1229"
         d="M 0,0 5,-5 -12.5,0 5,5 Z"
         style="fill:#000000;fill-opacity:1;fill-rule:evenodd;stroke:#000000;stroke-width:1pt;stroke-opacity:1"
         transform="matrix(-0.8,0,0,-0.8,-10,0)"
         inkscape:connector-curvature="0" />
    </marker>
    <marker
       inkscape:stockid="Arrow1Lend"
       orient="auto"
       refY="0"
       refX="0"
       id="Arrow1Lend"
       style="overflow:visible"
       inkscape:isstock="true">
      <path
         id="path908"
         d="M 0,0 5,-5 -12.5,0 5,5 Z"
         style="fill:#000000;fill-opacity:1;fill-rule:evenodd;stroke:#000000;stroke-width:1pt;stroke-opacity:1"
         transform="matrix(-0.8,0,0,-0.8,-10,0)"
         inkscape:connector-curvature="0" />
    </marker>
    <marker
       inkscape:stockid="Arrow1Lstart"
       orient="auto"
       refY="0"
       refX="0"
       id="marker1183"
       style="overflow:visible"
       inkscape:isstock="true">
      <path
         id="path1181"
         d="M 0,0 5,-5 -12.5,0 5,5 Z"
         style="fill:#000000;fill-opacity:1;fill-rule:evenodd;stroke:#000000;stroke-width:1pt;stroke-opacity:1"
         transform="matrix(0.8,0,0,0.8,10,0)"
         inkscape:connector-curvature="0" />
    </marker>
    <marker
       inkscape:stockid="Arrow1Lstart"
       orient="auto"
       refY="0"
       refX="0"
       id="Arrow1Lstart"
       style="overflow:visible"
       inkscape:isstock="true">
      <path
         id="path905"
         d="M 0,0 5,-5 -12.5,0 5,5 Z"
         style="fill:#000000;fill-opacity:1;fill-rule:evenodd;stroke:#000000;stroke-width:1pt;stroke-opacity:1"
         transform="matrix(0.8,0,0,0.8,10,0)"
         inkscape:connector-curvature="0" />
    </marker>
    <marker
       inkscape:isstock="true"
       style="overflow:visible"
       id="Arrow1Mend-2"
       refX="0"
       refY="0"
       orient="auto"
       inkscape:stockid="Arrow1Mend"
       inkscape:collect="always">
      <path
         transform="matrix(-0.4,0,0,-0.4,-4,0)"
         style="fill:#000000;fill-opacity:1;fill-rule:evenodd;stroke:#000000;stroke-width:1pt;stroke-opacity:1"
         d="M 0,0 5,-5 -12.5,0 5,5 Z"
         id="path914-0"
         inkscape:connector-curvature="0" />
    </marker>
    <marker
       inkscape:isstock="true"
       style="overflow:visible"
       id="Arrow1Mend-4"
       refX="0"
       refY="0"
       orient="auto"
       inkscape:stockid="Arrow1Mend">
      <path
         transform="matrix(-0.4,0,0,-0.4,-4,0)"
         style="fill:#000000;fill-opacity:1;fill-rule:evenodd;stroke:#000000;stroke-width:1pt;stroke-opacity:1"
         d="M 0,0 5,-5 -12.5,0 5,5 Z"
         id="path914-6"
         inkscape:connector-curvature="0" />
    </marker>
    <marker
       inkscape:stockid="Arrow1Mend"
       orient="auto"
       refY="0"
       refX="0"
       id="Arrow1Mend-2-5"
       style="overflow:visible"
       inkscape:isstock="true">
      <path
         inkscape:connector-curvature="0"
         id="path914-0-8"
         d="M 0,0 5,-5 -12.5,0 5,5 Z"
         style="fill:#000000;fill-opacity:1;fill-rule:evenodd;stroke:#000000;stroke-width:1pt;stroke-opacity:1"
         transform="matrix(-0.4,0,0,-0.4,-4,0)" />
    </marker>
    <marker
       inkscape:stockid="Arrow1Mend"
       orient="auto"
       refY="0"
       refX="0"
       id="marker3250-9"
       style="overflow:visible"
       inkscape:isstock="true">
      <path
         id="path3248-9"
         d="M 0,0 5,-5 -12.5,0 5,5 Z"
         style="fill:#000000;fill-opacity:1;fill-rule:evenodd;stroke:#000000;stroke-width:1pt;stroke-opacity:1"
         transform="matrix(-0.4,0,0,-0.4,-4,0)"
         inkscape:connector-curvature="0" />
    </marker>
    <marker
       inkscape:isstock="true"
       style="overflow:visible"
       id="marker3250-7-1"
       refX="0"
       refY="0"
       orient="auto"
       inkscape:stockid="Arrow1Mend"
       inkscape:collect="always">
      <path
         inkscape:connector-curvature="0"
         transform="matrix(-0.4,0,0,-0.4,-4,0)"
         style="fill:#000000;fill-opacity:1;fill-rule:evenodd;stroke:#000000;stroke-width:1pt;stroke-opacity:1"
         d="M 0,0 5,-5 -12.5,0 5,5 Z"
         id="path3248-8-9" />
    </marker>
    <marker
       inkscape:collect="always"
       inkscape:stockid="Arrow1Mend"
       orient="auto"
       refY="0"
       refX="0"
       id="marker3250-2"
       style="overflow:visible"
       inkscape:isstock="true">
      <path
         id="path3248-3"
         d="M 0,0 5,-5 -12.5,0 5,5 Z"
         style="fill:#000000;fill-opacity:1;fill-rule:evenodd;stroke:#000000;stroke-width:1pt;stroke-opacity:1"
         transform="matrix(-0.4,0,0,-0.4,-4,0)"
         inkscape:connector-curvature="0" />
    </marker>
    <marker
       inkscape:isstock="true"
       style="overflow:visible"
       id="marker3250-2-9"
       refX="0"
       refY="0"
       orient="auto"
       inkscape:stockid="Arrow1Mend"
       inkscape:collect="always">
      <path
         inkscape:connector-curvature="0"
         transform="matrix(-0.4,0,0,-0.4,-4,0)"
         style="fill:#000000;fill-opacity:1;fill-rule:evenodd;stroke:#000000;stroke-width:1pt;stroke-opacity:1"
         d="M 0,0 5,-5 -12.5,0 5,5 Z"
         id="path3248-3-6" />
    </marker>
    <marker
       inkscape:stockid="Arrow1Mend"
       orient="auto"
       refY="0"
       refX="0"
       id="Arrow1Mend-4-5"
       style="overflow:visible"
       inkscape:isstock="true">
      <path
         inkscape:connector-curvature="0"
         id="path914-6-0"
         d="M 0,0 5,-5 -12.5,0 5,5 Z"
         style="fill:#000000;fill-opacity:1;fill-rule:evenodd;stroke:#000000;stroke-width:1pt;stroke-opacity:1"
         transform="matrix(-0.4,0,0,-0.4,-4,0)" />
    </marker>
    <marker
       inkscape:isstock="true"
       style="overflow:visible"
       id="marker3561-5"
       refX="0"
       refY="0"
       orient="auto"
       inkscape:stockid="Arrow1Mend">
      <path
         transform="matrix(-0.4,0,0,-0.4,-4,0)"
         style="fill:#000000;fill-opacity:1;fill-rule:evenodd;stroke:#000000;stroke-width:1pt;stroke-opacity:1"
         d="M 0,0 5,-5 -12.5,0 5,5 Z"
         id="path3559-4"
         inkscape:connector-curvature="0" />
    </marker>
    <marker
       inkscape:collect="always"
       inkscape:stockid="Arrow1Mend"
       orient="auto"
       refY="0"
       refX="0"
       id="marker3250-2-9-9"
       style="overflow:visible"
       inkscape:isstock="true">
      <path
         id="path3248-3-6-2"
         d="M 0,0 5,-5 -12.5,0 5,5 Z"
         style="fill:#000000;fill-opacity:1;fill-rule:evenodd;stroke:#000000;stroke-width:1pt;stroke-opacity:1"
         transform="matrix(-0.4,0,0,-0.4,-4,0)"
         inkscape:connector-curvature="0" />
    </marker>
    <marker
       inkscape:isstock="true"
       style="overflow:visible"
       id="marker3250-7-1-0-0"
       refX="0"
       refY="0"
       orient="auto"
       inkscape:stockid="Arrow1Mend"
       inkscape:collect="always">
      <path
         inkscape:connector-curvature="0"
         transform="matrix(-0.4,0,0,-0.4,-4,0)"
         style="fill:#000000;fill-opacity:1;fill-rule:evenodd;stroke:#000000;stroke-width:1pt;stroke-opacity:1"
         d="M 0,0 5,-5 -12.5,0 5,5 Z"
         id="path3248-8-9-2-7" />
    </marker>
  </defs>
  <sodipodi:namedview
     inkscape:bbox-nodes="true"
     inkscape:snap-global="true"
     id="base"
     pagecolor="#ffffff"
     bordercolor="#666666"
     borderopacity="1.0"
     inkscape:pageopacity="0.0"
     inkscape:pageshadow="2"
     inkscape:zoom="0.62420162"
     inkscape:cx="1107.4977"
     inkscape:cy="534.31021"
     inkscape:document-units="mm"
     inkscape:current-layer="layer1"
     inkscape:document-rotation="0"
     showgrid="true"
     inkscape:snap-bbox="true"
     inkscape:window-width="2560"
     inkscape:window-height="1440"
     inkscape:window-x="0"
     inkscape:window-y="0"
     inkscape:window-maximized="0"
     fit-margin-top="5"
     fit-margin-left="5"
     fit-margin-bottom="5"
     fit-margin-right="5"
     showguides="false">
    <inkscape:grid
       type="xygrid"
       id="grid833"
       originx="-24.39064"
       originy="-13.520835" />
  </sodipodi:namedview>
  <metadata
     id="metadata5">
    <rdf:RDF>
      <cc:Work
         rdf:about="">
        <dc:format>image/svg+xml</dc:format>
        <dc:type
           rdf:resource="http://purl.org/dc/dcmitype/StillImage" />
        <dc:title></dc:title>
      </cc:Work>
    </rdf:RDF>
  </metadata>
  <g
     inkscape:label="Layer 1"
     inkscape:groupmode="layer"
     id="layer1"
     transform="translate(-24.390641,-13.520834)">
    <rect
       style="fill:#bcd35f;stroke:#007600;stroke-width:1;stroke-linecap:round;stroke-linejoin:round;stroke-miterlimit:4;stroke-dasharray:none;stop-color:#000000"
       id="rect835"
       width="52.916664"
       height="74.083328"
       x="31.750004"
       y="31.75" />
    <rect
       style="fill:#cdde87;stroke:#007600;stroke-width:1;stroke-linecap:round;stroke-linejoin:round;stroke-miterlimit:4;stroke-dasharray:none;stop-color:#000000"
       id="rect837"
       width="52.916664"
       height="74.083328"
       x="116.41666"
       y="31.75" />
    <path
       style="fill:none;stroke:#000000;stroke-width:1;stroke-linecap:butt;stroke-linejoin:miter;stroke-miterlimit:4;stroke-dasharray:none;stroke-opacity:1"
       d="m 42.333334,42.333333 h 31.749999 v 0"
       id="path850"
       inkscape:connector-curvature="0" />
    <path
       style="fill:none;stroke:#000000;stroke-width:1;stroke-linecap:butt;stroke-linejoin:miter;stroke-miterlimit:4;stroke-dasharray:none;stroke-opacity:1"
       d="M 42.333334,52.916666 H 74.083333"
       id="path852"
       inkscape:connector-curvature="0" />
    <path
       style="fill:none;stroke:#000000;stroke-width:1;stroke-linecap:butt;stroke-linejoin:miter;stroke-miterlimit:4;stroke-dasharray:none;stroke-opacity:1"
       d="M 42.333334,63.5 H 74.083333"
       id="path854"
       inkscape:connector-curvature="0" />
    <path
       style="fill:none;stroke:#000000;stroke-width:1;stroke-linecap:butt;stroke-linejoin:miter;stroke-miterlimit:4;stroke-dasharray:none;stroke-opacity:1"
       d="M 42.333334,74.083333 H 74.083333"
       id="path856"
       inkscape:connector-curvature="0" />
    <path
       style="fill:none;stroke:#000000;stroke-width:1;stroke-linecap:butt;stroke-linejoin:miter;stroke-miterlimit:4;stroke-dasharray:none;stroke-opacity:1"
       d="M 42.333334,84.666663 H 74.083333"
       id="path858"
       inkscape:connector-curvature="0" />
    <path
       style="fill:none;stroke:#000000;stroke-width:1;stroke-linecap:butt;stroke-linejoin:miter;stroke-miterlimit:4;stroke-dasharray:none;stroke-opacity:1"
       d="M 42.333334,95.250003 H 74.083333"
       id="path860"
       inkscape:connector-curvature="0" />
    <path
       inkscape:connector-curvature="0"
       id="path850-8"
       d="m 127,42.333334 h 31.75 v 0"
       style="fill:none;stroke:#000000;stroke-width:1;stroke-linecap:butt;stroke-linejoin:miter;stroke-miterlimit:4;stroke-dasharray:none;stroke-opacity:1" />
    <path
       inkscape:connector-curvature="0"
       id="path852-1"
       d="m 127,52.916667 h 31.75"
       style="fill:none;stroke:#000000;stroke-width:1;stroke-linecap:butt;stroke-linejoin:miter;stroke-miterlimit:4;stroke-dasharray:none;stroke-opacity:1" />
    <path
       inkscape:connector-curvature="0"
       id="path854-3"
       d="m 127,63.500001 h 31.75"
       style="fill:none;stroke:#000000;stroke-width:1;stroke-linecap:butt;stroke-linejoin:miter;stroke-miterlimit:4;stroke-dasharray:none;stroke-opacity:1" />
    <path
       inkscape:connector-curvature="0"
       id="path856-8"
       d="m 127,74.083333 h 31.75"
       style="fill:none;stroke:#000000;stroke-width:1;stroke-linecap:butt;stroke-linejoin:miter;stroke-miterlimit:4;stroke-dasharray:none;stroke-opacity:1" />
    <path
       inkscape:connector-curvature="0"
       id="path858-0"
       d="m 127,84.666663 h 31.75"
       style="fill:none;stroke:#000000;stroke-width:1;stroke-linecap:butt;stroke-linejoin:miter;stroke-miterlimit:4;stroke-dasharray:none;stroke-opacity:1" />
    <path
       inkscape:connector-curvature="0"
       id="path860-8"
       d="m 127,95.250003 h 31.75"
       style="fill:none;stroke:#000000;stroke-width:1;stroke-linecap:butt;stroke-linejoin:miter;stroke-miterlimit:4;stroke-dasharray:none;stroke-opacity:1" />
    <path
       style="fill:none;stroke:#000000;stroke-width:1;stroke-linecap:butt;stroke-linejoin:miter;stroke-miterlimit:4;stroke-dasharray:none;stroke-opacity:1;marker-end:url(#Arrow1Mend)"
       d="m 79.375,63.5 c 21.16667,10e-7 21.16667,-21.166666 42.33333,-21.166667"
       id="path903"
       inkscape:connector-curvature="0"
       sodipodi:nodetypes="cc" />
    <path
       sodipodi:nodetypes="cc"
       inkscape:connector-curvature="0"
       id="path903-6"
       d="m 121.70834,95.250003 c -21.16667,0 -21.16667,-21.16667 -42.333339,-21.16667"
       style="fill:none;stroke:#000000;stroke-width:1;stroke-linecap:butt;stroke-linejoin:miter;stroke-miterlimit:4;stroke-dasharray:none;stroke-opacity:1;marker-end:url(#Arrow1Mend-2)" />
    <rect
       y="190.5"
       x="222.24998"
       height="74.083328"
       width="52.916668"
       id="rect835-7"
       style="fill:#bcd35f;stroke:#007600;stroke-width:1;stroke-linecap:round;stroke-linejoin:round;stroke-miterlimit:4;stroke-dasharray:none;stop-color:#000000" />
    <rect
       y="190.5"
       x="306.91666"
       height="74.083328"
       width="52.916668"
       id="rect837-4"
       style="fill:#ff8080;stroke:#007600;stroke-width:1;stroke-linecap:round;stroke-linejoin:round;stroke-miterlimit:4;stroke-dasharray:none;stop-color:#000000" />
    <path
       inkscape:connector-curvature="0"
       id="path850-9"
       d="m 232.83332,201.08334 h 31.75 v 0"
       style="fill:none;stroke:#000000;stroke-width:1;stroke-linecap:butt;stroke-linejoin:miter;stroke-miterlimit:4;stroke-dasharray:none;stroke-opacity:1" />
    <path
       inkscape:connector-curvature="0"
       id="path852-3"
       d="m 232.83332,211.66667 h 31.75"
       style="fill:none;stroke:#000000;stroke-width:1;stroke-linecap:butt;stroke-linejoin:miter;stroke-miterlimit:4;stroke-dasharray:none;stroke-opacity:1" />
    <path
       inkscape:connector-curvature="0"
       id="path854-4"
       d="m 232.83332,222.25 h 31.75"
       style="fill:none;stroke:#000000;stroke-width:1;stroke-linecap:butt;stroke-linejoin:miter;stroke-miterlimit:4;stroke-dasharray:none;stroke-opacity:1" />
    <path
       inkscape:connector-curvature="0"
       id="path856-6"
       d="m 232.83332,232.83334 h 31.75"
       style="fill:none;stroke:#000000;stroke-width:1;stroke-linecap:butt;stroke-linejoin:miter;stroke-miterlimit:4;stroke-dasharray:none;stroke-opacity:1" />
    <path
       inkscape:connector-curvature="0"
       id="path858-4"
       d="m 232.83332,243.41667 h 31.75"
       style="fill:none;stroke:#000000;stroke-width:1;stroke-linecap:butt;stroke-linejoin:miter;stroke-miterlimit:4;stroke-dasharray:none;stroke-opacity:1" />
    <path
       inkscape:connector-curvature="0"
       id="path860-1"
       d="m 232.83332,254.00001 h 31.75"
       style="fill:none;stroke:#000000;stroke-width:1;stroke-linecap:butt;stroke-linejoin:miter;stroke-miterlimit:4;stroke-dasharray:none;stroke-opacity:1" />
    <path
       style="fill:none;stroke:#000000;stroke-width:1;stroke-linecap:butt;stroke-linejoin:miter;stroke-miterlimit:4;stroke-dasharray:none;stroke-opacity:1"
       d="m 317.5,201.08334 h 31.74999 v 0"
       id="path850-8-1"
       inkscape:connector-curvature="0" />
    <path
       style="fill:none;stroke:#000000;stroke-width:1;stroke-linecap:butt;stroke-linejoin:miter;stroke-miterlimit:4;stroke-dasharray:none;stroke-opacity:1"
       d="m 317.5,211.66667 h 31.74999"
       id="path852-1-5"
       inkscape:connector-curvature="0" />
    <path
       style="fill:none;stroke:#000000;stroke-width:1;stroke-linecap:butt;stroke-linejoin:miter;stroke-miterlimit:4;stroke-dasharray:none;stroke-opacity:1"
       d="m 317.5,222.25001 h 31.74999"
       id="path854-3-8"
       inkscape:connector-curvature="0" />
    <path
       style="fill:none;stroke:#000000;stroke-width:1;stroke-linecap:butt;stroke-linejoin:miter;stroke-miterlimit:4;stroke-dasharray:none;stroke-opacity:1"
       d="m 317.5,232.83334 h 31.74999"
       id="path856-8-3"
       inkscape:connector-curvature="0" />
    <path
       style="fill:none;stroke:#000000;stroke-width:1;stroke-linecap:butt;stroke-linejoin:miter;stroke-miterlimit:4;stroke-dasharray:none;stroke-opacity:1"
       d="m 317.5,243.41667 h 31.74999"
       id="path858-0-7"
       inkscape:connector-curvature="0" />
    <path
       style="fill:none;stroke:#000000;stroke-width:1;stroke-linecap:butt;stroke-linejoin:miter;stroke-miterlimit:4;stroke-dasharray:none;stroke-opacity:1"
       d="m 317.5,254.00001 h 31.74999"
       id="path860-8-2"
       inkscape:connector-curvature="0" />
    <path
       sodipodi:nodetypes="cc"
       inkscape:connector-curvature="0"
       id="path903-3"
       d="m 269.87499,254.00001 c 31.75,0 10.58334,-52.91667 42.33332,-52.91667"
       style="fill:none;stroke:#000000;stroke-width:1;stroke-linecap:butt;stroke-linejoin:miter;stroke-miterlimit:4;stroke-dasharray:none;stroke-opacity:1;marker-end:url(#Arrow1Mend-4)" />
    <path
       style="fill:none;stroke:#000000;stroke-width:1;stroke-linecap:butt;stroke-linejoin:miter;stroke-miterlimit:3.9;stroke-dasharray:none;stroke-opacity:1;marker-end:url(#marker3250)"
       d="M 121.70833,47.625 V 89.958333"
       id="path3246"
       inkscape:connector-curvature="0" />
    <path
       style="fill:none;stroke:#000000;stroke-width:1;stroke-linecap:butt;stroke-linejoin:miter;stroke-miterlimit:4;stroke-dasharray:none;stroke-opacity:1;marker-end:url(#marker3561)"
       d="m 354.54167,222.25001 h 9.21395 c 4.01522,0 4.01522,0 4.01522,-4.07786 l -1e-5,-21.05757 v -10.69786 c 0,-3.85421 0,-3.85421 -4.01522,-3.85422 H 218.1574 c -3.84491,1e-5 -3.84491,1e-5 -3.84491,3.77761 v 10.71544 c 0,4.02779 0,4.02779 3.91731,4.02779 h 9.31186"
       id="path4967"
       inkscape:connector-curvature="0"
       sodipodi:nodetypes="ccccccccccc" />
    <path
       sodipodi:nodetypes="cc"
       style="fill:none;stroke:#000000;stroke-width:1;stroke-linecap:butt;stroke-linejoin:miter;stroke-miterlimit:3.9;stroke-dasharray:none;stroke-opacity:1;marker-end:url(#marker3250-7-1)"
       d="m 312.20832,206.37501 v 15.875"
       id="path3246-2-8"
       inkscape:connector-curvature="0" />
    <path
       inkscape:connector-curvature="0"
       id="path3246-5"
       d="M 37.041668,18.520834 V 63.500001"
       style="fill:none;stroke:#000000;stroke-width:1;stroke-linecap:butt;stroke-linejoin:miter;stroke-miterlimit:3.9;stroke-dasharray:none;stroke-opacity:1;marker-end:url(#marker3250-2)"
       sodipodi:nodetypes="cc" />
    <path
       sodipodi:nodetypes="cc"
       style="fill:none;stroke:#000000;stroke-width:1;stroke-linecap:butt;stroke-linejoin:miter;stroke-miterlimit:3.9;stroke-dasharray:none;stroke-opacity:1;marker-end:url(#marker3250-2-9)"
       d="m 227.54166,177.27084 v 76.72917"
       id="path3246-5-5"
       inkscape:connector-curvature="0" />
    <rect
       style="fill:#bcd35f;stroke:#007600;stroke-width:1;stroke-linecap:round;stroke-linejoin:round;stroke-miterlimit:4;stroke-dasharray:none;stop-color:#000000"
       id="rect835-7-3"
       width="52.916668"
       height="74.083328"
       x="31.74999"
       y="190.49998" />
    <rect
       style="fill:#eef4d7;stroke:#007600;stroke-width:1;stroke-linecap:round;stroke-linejoin:round;stroke-miterlimit:3.9875;stroke-dasharray:2, 1;stroke-dashoffset:0;stop-color:#000000"
       id="rect837-4-4"
       width="52.916668"
       height="74.083328"
       x="116.41666"
       y="190.49998" />
    <path
       style="fill:none;stroke:#000000;stroke-width:1;stroke-linecap:butt;stroke-linejoin:miter;stroke-miterlimit:4;stroke-dasharray:none;stroke-opacity:1"
       d="m 42.333333,201.08334 h 31.75 v 0"
       id="path850-9-6"
       inkscape:connector-curvature="0" />
    <path
       style="fill:none;stroke:#000000;stroke-width:1;stroke-linecap:butt;stroke-linejoin:miter;stroke-miterlimit:4;stroke-dasharray:none;stroke-opacity:1"
       d="m 42.333333,211.66667 h 31.75"
       id="path852-3-2"
       inkscape:connector-curvature="0" />
    <path
       style="fill:none;stroke:#000000;stroke-width:1;stroke-linecap:butt;stroke-linejoin:miter;stroke-miterlimit:4;stroke-dasharray:none;stroke-opacity:1"
       d="m 42.333333,222.25 h 31.75"
       id="path854-4-3"
       inkscape:connector-curvature="0" />
    <path
       style="fill:none;stroke:#000000;stroke-width:1;stroke-linecap:butt;stroke-linejoin:miter;stroke-miterlimit:4;stroke-dasharray:none;stroke-opacity:1"
       d="m 42.333333,232.83334 h 31.75"
       id="path856-6-4"
       inkscape:connector-curvature="0" />
    <path
       style="fill:none;stroke:#000000;stroke-width:1;stroke-linecap:butt;stroke-linejoin:miter;stroke-miterlimit:4;stroke-dasharray:none;stroke-opacity:1"
       d="m 42.333333,243.41667 h 31.75"
       id="path858-4-7"
       inkscape:connector-curvature="0" />
    <path
       style="fill:none;stroke:#000000;stroke-width:1;stroke-linecap:butt;stroke-linejoin:miter;stroke-miterlimit:4;stroke-dasharray:none;stroke-opacity:1"
       d="m 42.333333,254.00001 h 31.75"
       id="path860-1-3"
       inkscape:connector-curvature="0" />
    <path
       inkscape:connector-curvature="0"
       id="path850-8-1-9"
       d="m 127,201.08334 h 31.74999 v 0"
       style="fill:#eef4d7;stroke:#000000;stroke-width:1;stroke-linecap:butt;stroke-linejoin:miter;stroke-miterlimit:3.9875;stroke-dasharray:2, 1;stroke-dashoffset:0;stroke-opacity:1" />
    <path
       inkscape:connector-curvature="0"
       id="path852-1-5-8"
       d="m 127,211.66667 h 31.74999"
       style="fill:#eef4d7;stroke:#000000;stroke-width:1;stroke-linecap:butt;stroke-linejoin:miter;stroke-miterlimit:3.9875;stroke-dasharray:2, 1;stroke-dashoffset:0;stroke-opacity:1" />
    <path
       inkscape:connector-curvature="0"
       id="path854-3-8-0"
       d="m 127,222.25 h 31.74999"
       style="fill:#eef4d7;stroke:#000000;stroke-width:1;stroke-linecap:butt;stroke-linejoin:miter;stroke-miterlimit:3.9875;stroke-dasharray:2, 1;stroke-dashoffset:0;stroke-opacity:1" />
    <path
       inkscape:connector-curvature="0"
       id="path856-8-3-6"
       d="m 127,232.83334 h 31.74999"
       style="fill:#eef4d7;stroke:#000000;stroke-width:1;stroke-linecap:butt;stroke-linejoin:miter;stroke-miterlimit:3.9875;stroke-dasharray:2, 1;stroke-dashoffset:0;stroke-opacity:1" />
    <path
       inkscape:connector-curvature="0"
       id="path858-0-7-3"
       d="m 127,243.41667 h 31.74999"
       style="fill:#eef4d7;stroke:#000000;stroke-width:1;stroke-linecap:butt;stroke-linejoin:miter;stroke-miterlimit:3.9875;stroke-dasharray:2, 1;stroke-dashoffset:0;stroke-opacity:1" />
    <path
       inkscape:connector-curvature="0"
       id="path860-8-2-0"
       d="m 127,254.00001 h 31.74999"
       style="fill:#eef4d7;stroke:#000000;stroke-width:1;stroke-linecap:butt;stroke-linejoin:miter;stroke-miterlimit:3.9875;stroke-dasharray:2, 1;stroke-dashoffset:0;stroke-opacity:1" />
    <path
       style="fill:none;stroke:#000000;stroke-width:1;stroke-linecap:butt;stroke-linejoin:miter;stroke-miterlimit:3.99375;stroke-dasharray:2, 1;stroke-dashoffset:0;stroke-opacity:1;marker-end:url(#Arrow1Mend-4-5)"
       d="m 79.375003,254.00001 c 31.749997,0 10.58333,-52.91667 42.333317,-52.91667"
       id="path903-3-6"
       inkscape:connector-curvature="0"
       sodipodi:nodetypes="cc" />
    <path
       inkscape:connector-curvature="0"
       id="path3246-2-8-5"
       d="m 121.70833,206.375 v 71.43751"
       style="fill:#000000;fill-opacity:1;stroke:#000400;stroke-width:1;stroke-linecap:butt;stroke-linejoin:miter;stroke-miterlimit:3.99375;stroke-dasharray:2, 1;stroke-dashoffset:0;stroke-opacity:1;marker-end:url(#marker10992)"
       sodipodi:nodetypes="cc" />
    <path
       inkscape:connector-curvature="0"
       id="path3246-5-5-4"
       d="m 37.041663,177.27083 v 76.72918"
       style="fill:none;stroke:#000000;stroke-width:1;stroke-linecap:butt;stroke-linejoin:miter;stroke-miterlimit:3.9;stroke-dasharray:none;stroke-opacity:1;marker-end:url(#marker3250-2-9-9)"
       sodipodi:nodetypes="cc" />
    <path
       sodipodi:nodetypes="cc"
       style="fill:none;stroke:#000000;stroke-width:1;stroke-linecap:butt;stroke-linejoin:miter;stroke-miterlimit:3.9;stroke-dasharray:none;stroke-opacity:1;marker-end:url(#marker3250-7-1-0-0)"
       d="m 312.20832,227.54166 v 50.27085"
       id="path3246-2-8-5-1"
       inkscape:connector-curvature="0" />
    <text
       xml:space="preserve"
       style="font-style:normal;font-variant:normal;font-weight:normal;font-stretch:normal;font-size:10.58329999999999949px;line-height:1.25;font-family:sans-serif;-inkscape-font-specification:'sans-serif Normal';font-variant-ligatures:normal;font-variant-caps:normal;font-variant-numeric:normal;font-variant-east-asian:normal;fill:#000000;fill-opacity:1;stroke:none;stroke-width:0.264583;"
       x="28.483873"
       y="129.30824"
       id="text10500"><tspan
         sodipodi:role="line"
         id="tspan10510"
         x="28.483873"
         y="129.30824">コントラクト間関数呼び出しの</tspan><tspan
         sodipodi:role="line"
         id="tspan10512"
         x="28.483873"
         y="142.71086">イメージ</tspan></text>
    <text
       id="text10500-0"
       y="295.50174"
       x="28.67234"
       style="font-style:normal;font-variant:normal;font-weight:normal;font-stretch:normal;font-size:10.5833px;line-height:1.25;font-family:sans-serif;-inkscape-font-specification:'sans-serif Normal';font-variant-ligatures:normal;font-variant-caps:normal;font-variant-numeric:normal;font-variant-east-asian:normal;fill:#000000;fill-opacity:1;stroke:none;stroke-width:0.264583"
       xml:space="preserve"><tspan
         sodipodi:role="line"
         id="tspan11316"
         x="28.67234"
         y="295.50174">与えられたコントラクトを呼び</tspan><tspan
         sodipodi:role="line"
         id="tspan11318"
         x="28.67234"
         y="308.90436">出すコントラクト。再帰呼び出</tspan><tspan
         sodipodi:role="line"
         id="tspan11320"
         x="28.67234"
         y="322.30698">しを想定していない。</tspan></text>
    <text
       xml:space="preserve"
       style="font-style:normal;font-variant:normal;font-weight:normal;font-stretch:normal;font-size:10.5833px;line-height:1.25;font-family:sans-serif;-inkscape-font-specification:'sans-serif Normal';font-variant-ligatures:normal;font-variant-caps:normal;font-variant-numeric:normal;font-variant-east-asian:normal;fill:#000000;fill-opacity:1;stroke:none;stroke-width:0.264583"
       x="219.29863"
       y="295.50174"
       id="text10500-0-2"><tspan
         sodipodi:role="line"
         id="tspan11380"
         x="219.29863"
         y="295.50174">DAO事件。悪意あるコントラク</tspan><tspan
         sodipodi:role="line"
         id="tspan11382"
         x="219.29863"
         y="308.90436">トを与えられ、想定外の再帰呼</tspan><tspan
         sodipodi:role="line"
         id="tspan11384"
         x="219.29863"
         y="322.30698">び出しにより資金を吸い取られ</tspan><tspan
         sodipodi:role="line"
         id="tspan11386"
         x="219.29863"
         y="335.70956">てしまった。</tspan></text>
    <text
       id="text949"
       y="164.04167"
       x="164.04166"
       style="font-style:normal;font-weight:normal;font-size:10.5833px;line-height:1.25;font-family:sans-serif;fill:#000000;fill-opacity:1;stroke:none;stroke-width:0.264583"
       xml:space="preserve"><tspan
         style="stroke-width:0.264583"
         y="164.04167"
         x="164.04166"
         id="tspan947"
         sodipodi:role="line" /></text>
    <g
       id="g1044">
      <g
         id="g1030">
        <g
           transform="translate(-11.440713,68.415461)"
           id="g1017">
          <circle
             r="7.9375"
             cy="159.42888"
             cx="113.23688"
             id="path955-4"
             style="fill:#b3b3b3;stroke:none;stroke-width:1;stroke-linecap:round;stroke-linejoin:round;stroke-miterlimit:3.99375;stroke-dasharray:none;stop-color:#000000" />
          <circle
             style="fill:#000000;stroke:none;stroke-width:1;stroke-linecap:round;stroke-linejoin:round;stroke-miterlimit:3.99375;stroke-dasharray:none;stop-color:#000000"
             id="path955"
             cx="112.68587"
             cy="158.92128"
             r="7.9375" />
          <text
             xml:space="preserve"
             style="font-style:normal;font-variant:normal;font-weight:normal;font-stretch:normal;font-size:14.1111px;line-height:1.25;font-family:sans-serif;-inkscape-font-specification:'sans-serif Normal';font-variant-ligatures:normal;font-variant-caps:normal;font-variant-numeric:normal;font-variant-east-asian:normal;fill:#ffffff;fill-opacity:1;stroke:none;stroke-width:0.264583"
             x="108.19682"
             y="163.24483"
             id="text953"><tspan
               sodipodi:role="line"
               id="tspan951"
               x="108.19682"
               y="163.24483"
               style="font-style:normal;font-variant:normal;font-weight:normal;font-stretch:normal;font-size:14.1111px;font-family:sans-serif;-inkscape-font-specification:'sans-serif Normal';font-variant-ligatures:normal;font-variant-caps:normal;font-variant-numeric:normal;font-variant-east-asian:normal;fill:#ffffff;stroke-width:0.264583">$</tspan></text>
        </g>
      </g>
    </g>
    <g
       transform="translate(-23.862503,78.002084)"
       style="stroke:#7b7a7a;stroke-width:0.1;stroke-miterlimit:4;stroke-dasharray:none;stroke-opacity:1"
       id="g2363">
      <g
         style="stroke:#7b7a7a;stroke-width:0.1;stroke-miterlimit:4;stroke-dasharray:none;stroke-opacity:1"
         id="g1861">
        <g
           style="stroke:#7b7a7a;stroke-width:0.1;stroke-miterlimit:4;stroke-dasharray:none;stroke-opacity:1"
           transform="translate(215.70384,-73.063091)"
           id="g1044-0">
          <g
             style="stroke:#7b7a7a;stroke-width:0.1;stroke-miterlimit:4;stroke-dasharray:none;stroke-opacity:1"
             id="g1030-8">
            <g
               style="stroke:#7b7a7a;stroke-width:0.1;stroke-miterlimit:4;stroke-dasharray:none;stroke-opacity:1"
               id="g1017-7"
               transform="translate(-11.440713,68.415461)">
              <circle
                 style="fill:#b3b3b3;stroke:#7b7a7a;stroke-width:0.1;stroke-linecap:round;stroke-linejoin:round;stroke-miterlimit:4;stroke-dasharray:none;stroke-opacity:1;stop-color:#000000"
                 id="path955-4-3"
                 cx="113.23688"
                 cy="159.42888"
                 r="7.9375" />
              <circle
                 r="7.9375"
                 cy="158.92128"
                 cx="112.68587"
                 id="path955-8"
                 style="fill:#000000;stroke:#7b7a7a;stroke-width:0.1;stroke-linecap:round;stroke-linejoin:round;stroke-miterlimit:4;stroke-dasharray:none;stroke-opacity:1;stop-color:#000000" />
              <text
                 id="text953-4"
                 y="163.24483"
                 x="108.19682"
                 style="font-style:normal;font-variant:normal;font-weight:normal;font-stretch:normal;font-size:14.1111px;line-height:1.25;font-family:sans-serif;-inkscape-font-specification:'sans-serif Normal';font-variant-ligatures:normal;font-variant-caps:normal;font-variant-numeric:normal;font-variant-east-asian:normal;fill:#ffffff;fill-opacity:1;stroke:#7b7a7a;stroke-width:0.1;stroke-miterlimit:4;stroke-dasharray:none;stroke-opacity:1"
                 xml:space="preserve"><tspan
                   style="font-style:normal;font-variant:normal;font-weight:normal;font-stretch:normal;font-size:14.1111px;font-family:sans-serif;-inkscape-font-specification:'sans-serif Normal';font-variant-ligatures:normal;font-variant-caps:normal;font-variant-numeric:normal;font-variant-east-asian:normal;fill:#ffffff;stroke:#7b7a7a;stroke-width:0.1;stroke-miterlimit:4;stroke-dasharray:none;stroke-opacity:1"
                   y="163.24483"
                   x="108.19682"
                   id="tspan951-5"
                   sodipodi:role="line">$</tspan></text>
            </g>
          </g>
        </g>
        <g
           style="stroke:#7b7a7a;stroke-width:0.1;stroke-miterlimit:4;stroke-dasharray:none;stroke-opacity:1"
           id="g1044-0-2"
           transform="translate(215.17467,-74.121424)">
          <g
             style="stroke:#7b7a7a;stroke-width:0.1;stroke-miterlimit:4;stroke-dasharray:none;stroke-opacity:1"
             id="g1030-8-9">
            <g
               style="stroke:#7b7a7a;stroke-width:0.1;stroke-miterlimit:4;stroke-dasharray:none;stroke-opacity:1"
               transform="translate(-11.440713,68.415461)"
               id="g1017-7-0">
              <circle
                 r="7.9375"
                 cy="159.42888"
                 cx="113.23688"
                 id="path955-4-3-9"
                 style="fill:#b3b3b3;stroke:#7b7a7a;stroke-width:0.1;stroke-linecap:round;stroke-linejoin:round;stroke-miterlimit:4;stroke-dasharray:none;stroke-opacity:1;stop-color:#000000" />
              <circle
                 style="fill:#000000;stroke:#7b7a7a;stroke-width:0.1;stroke-linecap:round;stroke-linejoin:round;stroke-miterlimit:4;stroke-dasharray:none;stroke-opacity:1;stop-color:#000000"
                 id="path955-8-8"
                 cx="112.68587"
                 cy="158.92128"
                 r="7.9375" />
              <text
                 xml:space="preserve"
                 style="font-style:normal;font-variant:normal;font-weight:normal;font-stretch:normal;font-size:14.1111px;line-height:1.25;font-family:sans-serif;-inkscape-font-specification:'sans-serif Normal';font-variant-ligatures:normal;font-variant-caps:normal;font-variant-numeric:normal;font-variant-east-asian:normal;fill:#ffffff;fill-opacity:1;stroke:#7b7a7a;stroke-width:0.1;stroke-miterlimit:4;stroke-dasharray:none;stroke-opacity:1"
                 x="108.19682"
                 y="163.24483"
                 id="text953-4-0"><tspan
                   sodipodi:role="line"
                   id="tspan951-5-5"
                   x="108.19682"
                   y="163.24483"
                   style="font-style:normal;font-variant:normal;font-weight:normal;font-stretch:normal;font-size:14.1111px;font-family:sans-serif;-inkscape-font-specification:'sans-serif Normal';font-variant-ligatures:normal;font-variant-caps:normal;font-variant-numeric:normal;font-variant-east-asian:normal;fill:#ffffff;stroke:#7b7a7a;stroke-width:0.1;stroke-miterlimit:4;stroke-dasharray:none;stroke-opacity:1">$</tspan></text>
            </g>
          </g>
        </g>
        <g
           style="stroke:#7b7a7a;stroke-width:0.1;stroke-miterlimit:4;stroke-dasharray:none;stroke-opacity:1"
           id="g1044-0-6"
           transform="translate(214.64551,-75.179761)">
          <g
             style="stroke:#7b7a7a;stroke-width:0.1;stroke-miterlimit:4;stroke-dasharray:none;stroke-opacity:1"
             id="g1030-8-1">
            <g
               style="stroke:#7b7a7a;stroke-width:0.1;stroke-miterlimit:4;stroke-dasharray:none;stroke-opacity:1"
               transform="translate(-11.440713,68.415461)"
               id="g1017-7-9">
              <circle
                 r="7.9375"
                 cy="159.42888"
                 cx="113.23688"
                 id="path955-4-3-3"
                 style="fill:#b3b3b3;stroke:#7b7a7a;stroke-width:0.1;stroke-linecap:round;stroke-linejoin:round;stroke-miterlimit:4;stroke-dasharray:none;stroke-opacity:1;stop-color:#000000" />
              <circle
                 style="fill:#000000;stroke:#7b7a7a;stroke-width:0.1;stroke-linecap:round;stroke-linejoin:round;stroke-miterlimit:4;stroke-dasharray:none;stroke-opacity:1;stop-color:#000000"
                 id="path955-8-4"
                 cx="112.68587"
                 cy="158.92128"
                 r="7.9375" />
              <text
                 xml:space="preserve"
                 style="font-style:normal;font-variant:normal;font-weight:normal;font-stretch:normal;font-size:14.1111px;line-height:1.25;font-family:sans-serif;-inkscape-font-specification:'sans-serif Normal';font-variant-ligatures:normal;font-variant-caps:normal;font-variant-numeric:normal;font-variant-east-asian:normal;fill:#ffffff;fill-opacity:1;stroke:#7b7a7a;stroke-width:0.1;stroke-miterlimit:4;stroke-dasharray:none;stroke-opacity:1"
                 x="108.19682"
                 y="163.24483"
                 id="text953-4-7"><tspan
                   sodipodi:role="line"
                   id="tspan951-5-9"
                   x="108.19682"
                   y="163.24483"
                   style="font-style:normal;font-variant:normal;font-weight:normal;font-stretch:normal;font-size:14.1111px;font-family:sans-serif;-inkscape-font-specification:'sans-serif Normal';font-variant-ligatures:normal;font-variant-caps:normal;font-variant-numeric:normal;font-variant-east-asian:normal;fill:#ffffff;stroke:#7b7a7a;stroke-width:0.1;stroke-miterlimit:4;stroke-dasharray:none;stroke-opacity:1">$</tspan></text>
            </g>
          </g>
        </g>
        <g
           style="stroke:#7b7a7a;stroke-width:0.1;stroke-miterlimit:4;stroke-dasharray:none;stroke-opacity:1"
           transform="translate(214.11634,-76.238091)"
           id="g1044-0-2-8">
          <g
             style="stroke:#7b7a7a;stroke-width:0.1;stroke-miterlimit:4;stroke-dasharray:none;stroke-opacity:1"
             id="g1030-8-9-0">
            <g
               style="stroke:#7b7a7a;stroke-width:0.1;stroke-miterlimit:4;stroke-dasharray:none;stroke-opacity:1"
               id="g1017-7-0-7"
               transform="translate(-11.440713,68.415461)">
              <circle
                 style="fill:#b3b3b3;stroke:#7b7a7a;stroke-width:0.1;stroke-linecap:round;stroke-linejoin:round;stroke-miterlimit:4;stroke-dasharray:none;stroke-opacity:1;stop-color:#000000"
                 id="path955-4-3-9-5"
                 cx="113.23688"
                 cy="159.42888"
                 r="7.9375" />
              <circle
                 r="7.9375"
                 cy="158.92128"
                 cx="112.68587"
                 id="path955-8-8-8"
                 style="fill:#000000;stroke:#7b7a7a;stroke-width:0.1;stroke-linecap:round;stroke-linejoin:round;stroke-miterlimit:4;stroke-dasharray:none;stroke-opacity:1;stop-color:#000000" />
              <text
                 id="text953-4-0-4"
                 y="163.24483"
                 x="108.19682"
                 style="font-style:normal;font-variant:normal;font-weight:normal;font-stretch:normal;font-size:14.1111px;line-height:1.25;font-family:sans-serif;-inkscape-font-specification:'sans-serif Normal';font-variant-ligatures:normal;font-variant-caps:normal;font-variant-numeric:normal;font-variant-east-asian:normal;fill:#ffffff;fill-opacity:1;stroke:#7b7a7a;stroke-width:0.1;stroke-miterlimit:4;stroke-dasharray:none;stroke-opacity:1"
                 xml:space="preserve"><tspan
                   style="font-style:normal;font-variant:normal;font-weight:normal;font-stretch:normal;font-size:14.1111px;font-family:sans-serif;-inkscape-font-specification:'sans-serif Normal';font-variant-ligatures:normal;font-variant-caps:normal;font-variant-numeric:normal;font-variant-east-asian:normal;fill:#ffffff;stroke:#7b7a7a;stroke-width:0.1;stroke-miterlimit:4;stroke-dasharray:none;stroke-opacity:1"
                   y="163.24483"
                   x="108.19682"
                   id="tspan951-5-5-2"
                   sodipodi:role="line">$</tspan></text>
            </g>
          </g>
        </g>
      </g>
      <g
         style="stroke:#7b7a7a;stroke-width:0.1;stroke-miterlimit:4;stroke-dasharray:none;stroke-opacity:1"
         id="g1861-0"
         transform="translate(-1.5875034,-2.9104165)">
        <g
           style="stroke:#7b7a7a;stroke-width:0.1;stroke-miterlimit:4;stroke-dasharray:none;stroke-opacity:1"
           id="g1044-0-7"
           transform="translate(215.70384,-73.063091)">
          <g
             style="stroke:#7b7a7a;stroke-width:0.1;stroke-miterlimit:4;stroke-dasharray:none;stroke-opacity:1"
             id="g1030-8-0">
            <g
               style="stroke:#7b7a7a;stroke-width:0.1;stroke-miterlimit:4;stroke-dasharray:none;stroke-opacity:1"
               transform="translate(-11.440713,68.415461)"
               id="g1017-7-7">
              <circle
                 r="7.9375"
                 cy="159.42888"
                 cx="113.23688"
                 id="path955-4-3-6"
                 style="fill:#b3b3b3;stroke:#7b7a7a;stroke-width:0.1;stroke-linecap:round;stroke-linejoin:round;stroke-miterlimit:4;stroke-dasharray:none;stroke-opacity:1;stop-color:#000000" />
              <circle
                 style="fill:#000000;stroke:#7b7a7a;stroke-width:0.1;stroke-linecap:round;stroke-linejoin:round;stroke-miterlimit:4;stroke-dasharray:none;stroke-opacity:1;stop-color:#000000"
                 id="path955-8-82"
                 cx="112.68587"
                 cy="158.92128"
                 r="7.9375" />
              <text
                 xml:space="preserve"
                 style="font-style:normal;font-variant:normal;font-weight:normal;font-stretch:normal;font-size:14.1111px;line-height:1.25;font-family:sans-serif;-inkscape-font-specification:'sans-serif Normal';font-variant-ligatures:normal;font-variant-caps:normal;font-variant-numeric:normal;font-variant-east-asian:normal;fill:#ffffff;fill-opacity:1;stroke:#7b7a7a;stroke-width:0.1;stroke-miterlimit:4;stroke-dasharray:none;stroke-opacity:1"
                 x="108.19682"
                 y="163.24483"
                 id="text953-4-3"><tspan
                   sodipodi:role="line"
                   id="tspan951-5-90"
                   x="108.19682"
                   y="163.24483"
                   style="font-style:normal;font-variant:normal;font-weight:normal;font-stretch:normal;font-size:14.1111px;font-family:sans-serif;-inkscape-font-specification:'sans-serif Normal';font-variant-ligatures:normal;font-variant-caps:normal;font-variant-numeric:normal;font-variant-east-asian:normal;fill:#ffffff;stroke:#7b7a7a;stroke-width:0.1;stroke-miterlimit:4;stroke-dasharray:none;stroke-opacity:1">$</tspan></text>
            </g>
          </g>
        </g>
        <g
           style="stroke:#7b7a7a;stroke-width:0.1;stroke-miterlimit:4;stroke-dasharray:none;stroke-opacity:1"
           transform="translate(215.17467,-74.121424)"
           id="g1044-0-2-3">
          <g
             style="stroke:#7b7a7a;stroke-width:0.1;stroke-miterlimit:4;stroke-dasharray:none;stroke-opacity:1"
             id="g1030-8-9-8">
            <g
               style="stroke:#7b7a7a;stroke-width:0.1;stroke-miterlimit:4;stroke-dasharray:none;stroke-opacity:1"
               id="g1017-7-0-3"
               transform="translate(-11.440713,68.415461)">
              <circle
                 style="fill:#b3b3b3;stroke:#7b7a7a;stroke-width:0.1;stroke-linecap:round;stroke-linejoin:round;stroke-miterlimit:4;stroke-dasharray:none;stroke-opacity:1;stop-color:#000000"
                 id="path955-4-3-9-1"
                 cx="113.23688"
                 cy="159.42888"
                 r="7.9375" />
              <circle
                 r="7.9375"
                 cy="158.92128"
                 cx="112.68587"
                 id="path955-8-8-0"
                 style="fill:#000000;stroke:#7b7a7a;stroke-width:0.1;stroke-linecap:round;stroke-linejoin:round;stroke-miterlimit:4;stroke-dasharray:none;stroke-opacity:1;stop-color:#000000" />
              <text
                 id="text953-4-0-0"
                 y="163.24483"
                 x="108.19682"
                 style="font-style:normal;font-variant:normal;font-weight:normal;font-stretch:normal;font-size:14.1111px;line-height:1.25;font-family:sans-serif;-inkscape-font-specification:'sans-serif Normal';font-variant-ligatures:normal;font-variant-caps:normal;font-variant-numeric:normal;font-variant-east-asian:normal;fill:#ffffff;fill-opacity:1;stroke:#7b7a7a;stroke-width:0.1;stroke-miterlimit:4;stroke-dasharray:none;stroke-opacity:1"
                 xml:space="preserve"><tspan
                   style="font-style:normal;font-variant:normal;font-weight:normal;font-stretch:normal;font-size:14.1111px;font-family:sans-serif;-inkscape-font-specification:'sans-serif Normal';font-variant-ligatures:normal;font-variant-caps:normal;font-variant-numeric:normal;font-variant-east-asian:normal;fill:#ffffff;stroke:#7b7a7a;stroke-width:0.1;stroke-miterlimit:4;stroke-dasharray:none;stroke-opacity:1"
                   y="163.24483"
                   x="108.19682"
                   id="tspan951-5-5-8"
                   sodipodi:role="line">$</tspan></text>
            </g>
          </g>
        </g>
        <g
           style="stroke:#7b7a7a;stroke-width:0.1;stroke-miterlimit:4;stroke-dasharray:none;stroke-opacity:1"
           transform="translate(214.64551,-75.179761)"
           id="g1044-0-6-0">
          <g
             style="stroke:#7b7a7a;stroke-width:0.1;stroke-miterlimit:4;stroke-dasharray:none;stroke-opacity:1"
             id="g1030-8-1-4">
            <g
               style="stroke:#7b7a7a;stroke-width:0.1;stroke-miterlimit:4;stroke-dasharray:none;stroke-opacity:1"
               id="g1017-7-9-7"
               transform="translate(-11.440713,68.415461)">
              <circle
                 style="fill:#b3b3b3;stroke:#7b7a7a;stroke-width:0.1;stroke-linecap:round;stroke-linejoin:round;stroke-miterlimit:4;stroke-dasharray:none;stroke-opacity:1;stop-color:#000000"
                 id="path955-4-3-3-6"
                 cx="113.23688"
                 cy="159.42888"
                 r="7.9375" />
              <circle
                 r="7.9375"
                 cy="158.92128"
                 cx="112.68587"
                 id="path955-8-4-1"
                 style="fill:#000000;stroke:#7b7a7a;stroke-width:0.1;stroke-linecap:round;stroke-linejoin:round;stroke-miterlimit:4;stroke-dasharray:none;stroke-opacity:1;stop-color:#000000" />
              <text
                 id="text953-4-7-6"
                 y="163.24483"
                 x="108.19682"
                 style="font-style:normal;font-variant:normal;font-weight:normal;font-stretch:normal;font-size:14.1111px;line-height:1.25;font-family:sans-serif;-inkscape-font-specification:'sans-serif Normal';font-variant-ligatures:normal;font-variant-caps:normal;font-variant-numeric:normal;font-variant-east-asian:normal;fill:#ffffff;fill-opacity:1;stroke:#7b7a7a;stroke-width:0.1;stroke-miterlimit:4;stroke-dasharray:none;stroke-opacity:1"
                 xml:space="preserve"><tspan
                   style="font-style:normal;font-variant:normal;font-weight:normal;font-stretch:normal;font-size:14.1111px;font-family:sans-serif;-inkscape-font-specification:'sans-serif Normal';font-variant-ligatures:normal;font-variant-caps:normal;font-variant-numeric:normal;font-variant-east-asian:normal;fill:#ffffff;stroke:#7b7a7a;stroke-width:0.1;stroke-miterlimit:4;stroke-dasharray:none;stroke-opacity:1"
                   y="163.24483"
                   x="108.19682"
                   id="tspan951-5-9-1"
                   sodipodi:role="line">$</tspan></text>
            </g>
          </g>
        </g>
        <g
           style="stroke:#7b7a7a;stroke-width:0.1;stroke-miterlimit:4;stroke-dasharray:none;stroke-opacity:1"
           id="g1044-0-2-8-4"
           transform="translate(214.11634,-76.238091)">
          <g
             style="stroke:#7b7a7a;stroke-width:0.1;stroke-miterlimit:4;stroke-dasharray:none;stroke-opacity:1"
             id="g1030-8-9-0-9">
            <g
               style="stroke:#7b7a7a;stroke-width:0.1;stroke-miterlimit:4;stroke-dasharray:none;stroke-opacity:1"
               transform="translate(-11.440713,68.415461)"
               id="g1017-7-0-7-6">
              <circle
                 r="7.9375"
                 cy="159.42888"
                 cx="113.23688"
                 id="path955-4-3-9-5-4"
                 style="fill:#b3b3b3;stroke:#7b7a7a;stroke-width:0.1;stroke-linecap:round;stroke-linejoin:round;stroke-miterlimit:4;stroke-dasharray:none;stroke-opacity:1;stop-color:#000000" />
              <circle
                 style="fill:#000000;stroke:#7b7a7a;stroke-width:0.1;stroke-linecap:round;stroke-linejoin:round;stroke-miterlimit:4;stroke-dasharray:none;stroke-opacity:1;stop-color:#000000"
                 id="path955-8-8-8-2"
                 cx="112.68587"
                 cy="158.92128"
                 r="7.9375" />
              <text
                 xml:space="preserve"
                 style="font-style:normal;font-variant:normal;font-weight:normal;font-stretch:normal;font-size:14.1111px;line-height:1.25;font-family:sans-serif;-inkscape-font-specification:'sans-serif Normal';font-variant-ligatures:normal;font-variant-caps:normal;font-variant-numeric:normal;font-variant-east-asian:normal;fill:#ffffff;fill-opacity:1;stroke:#7b7a7a;stroke-width:0.1;stroke-miterlimit:4;stroke-dasharray:none;stroke-opacity:1"
                 x="108.19682"
                 y="163.24483"
                 id="text953-4-0-4-8"><tspan
                   sodipodi:role="line"
                   id="tspan951-5-5-2-4"
                   x="108.19682"
                   y="163.24483"
                   style="font-style:normal;font-variant:normal;font-weight:normal;font-stretch:normal;font-size:14.1111px;font-family:sans-serif;-inkscape-font-specification:'sans-serif Normal';font-variant-ligatures:normal;font-variant-caps:normal;font-variant-numeric:normal;font-variant-east-asian:normal;fill:#ffffff;stroke:#7b7a7a;stroke-width:0.1;stroke-miterlimit:4;stroke-dasharray:none;stroke-opacity:1">$</tspan></text>
            </g>
          </g>
        </g>
      </g>
      <g
         style="stroke:#7b7a7a;stroke-width:0.1;stroke-miterlimit:4;stroke-dasharray:none;stroke-opacity:1"
         id="g1861-6"
         transform="translate(-3.7041701,-7.1437464)">
        <g
           style="stroke:#7b7a7a;stroke-width:0.1;stroke-miterlimit:4;stroke-dasharray:none;stroke-opacity:1"
           id="g1044-0-70"
           transform="translate(215.70384,-73.063091)">
          <g
             style="stroke:#7b7a7a;stroke-width:0.1;stroke-miterlimit:4;stroke-dasharray:none;stroke-opacity:1"
             id="g1030-8-97">
            <g
               style="stroke:#7b7a7a;stroke-width:0.1;stroke-miterlimit:4;stroke-dasharray:none;stroke-opacity:1"
               transform="translate(-11.440713,68.415461)"
               id="g1017-7-3">
              <circle
                 r="7.9375"
                 cy="159.42888"
                 cx="113.23688"
                 id="path955-4-3-1"
                 style="fill:#b3b3b3;stroke:#7b7a7a;stroke-width:0.1;stroke-linecap:round;stroke-linejoin:round;stroke-miterlimit:4;stroke-dasharray:none;stroke-opacity:1;stop-color:#000000" />
              <circle
                 style="fill:#000000;stroke:#7b7a7a;stroke-width:0.1;stroke-linecap:round;stroke-linejoin:round;stroke-miterlimit:4;stroke-dasharray:none;stroke-opacity:1;stop-color:#000000"
                 id="path955-8-5"
                 cx="112.68587"
                 cy="158.92128"
                 r="7.9375" />
              <text
                 xml:space="preserve"
                 style="font-style:normal;font-variant:normal;font-weight:normal;font-stretch:normal;font-size:14.1111px;line-height:1.25;font-family:sans-serif;-inkscape-font-specification:'sans-serif Normal';font-variant-ligatures:normal;font-variant-caps:normal;font-variant-numeric:normal;font-variant-east-asian:normal;fill:#ffffff;fill-opacity:1;stroke:#7b7a7a;stroke-width:0.1;stroke-miterlimit:4;stroke-dasharray:none;stroke-opacity:1"
                 x="108.19682"
                 y="163.24483"
                 id="text953-4-6"><tspan
                   sodipodi:role="line"
                   id="tspan951-5-4"
                   x="108.19682"
                   y="163.24483"
                   style="font-style:normal;font-variant:normal;font-weight:normal;font-stretch:normal;font-size:14.1111px;font-family:sans-serif;-inkscape-font-specification:'sans-serif Normal';font-variant-ligatures:normal;font-variant-caps:normal;font-variant-numeric:normal;font-variant-east-asian:normal;fill:#ffffff;stroke:#7b7a7a;stroke-width:0.1;stroke-miterlimit:4;stroke-dasharray:none;stroke-opacity:1">$</tspan></text>
            </g>
          </g>
        </g>
        <g
           style="stroke:#7b7a7a;stroke-width:0.1;stroke-miterlimit:4;stroke-dasharray:none;stroke-opacity:1"
           transform="translate(215.17467,-74.121424)"
           id="g1044-0-2-5">
          <g
             style="stroke:#7b7a7a;stroke-width:0.1;stroke-miterlimit:4;stroke-dasharray:none;stroke-opacity:1"
             id="g1030-8-9-1">
            <g
               style="stroke:#7b7a7a;stroke-width:0.1;stroke-miterlimit:4;stroke-dasharray:none;stroke-opacity:1"
               id="g1017-7-0-2"
               transform="translate(-11.440713,68.415461)">
              <circle
                 style="fill:#b3b3b3;stroke:#7b7a7a;stroke-width:0.1;stroke-linecap:round;stroke-linejoin:round;stroke-miterlimit:4;stroke-dasharray:none;stroke-opacity:1;stop-color:#000000"
                 id="path955-4-3-9-8"
                 cx="113.23688"
                 cy="159.42888"
                 r="7.9375" />
              <circle
                 r="7.9375"
                 cy="158.92128"
                 cx="112.68587"
                 id="path955-8-8-80"
                 style="fill:#000000;stroke:#7b7a7a;stroke-width:0.1;stroke-linecap:round;stroke-linejoin:round;stroke-miterlimit:4;stroke-dasharray:none;stroke-opacity:1;stop-color:#000000" />
              <text
                 id="text953-4-0-7"
                 y="163.24483"
                 x="108.19682"
                 style="font-style:normal;font-variant:normal;font-weight:normal;font-stretch:normal;font-size:14.1111px;line-height:1.25;font-family:sans-serif;-inkscape-font-specification:'sans-serif Normal';font-variant-ligatures:normal;font-variant-caps:normal;font-variant-numeric:normal;font-variant-east-asian:normal;fill:#ffffff;fill-opacity:1;stroke:#7b7a7a;stroke-width:0.1;stroke-miterlimit:4;stroke-dasharray:none;stroke-opacity:1"
                 xml:space="preserve"><tspan
                   style="font-style:normal;font-variant:normal;font-weight:normal;font-stretch:normal;font-size:14.1111px;font-family:sans-serif;-inkscape-font-specification:'sans-serif Normal';font-variant-ligatures:normal;font-variant-caps:normal;font-variant-numeric:normal;font-variant-east-asian:normal;fill:#ffffff;stroke:#7b7a7a;stroke-width:0.1;stroke-miterlimit:4;stroke-dasharray:none;stroke-opacity:1"
                   y="163.24483"
                   x="108.19682"
                   id="tspan951-5-5-7"
                   sodipodi:role="line">$</tspan></text>
            </g>
          </g>
        </g>
        <g
           style="stroke:#7b7a7a;stroke-width:0.1;stroke-miterlimit:4;stroke-dasharray:none;stroke-opacity:1"
           transform="translate(214.64551,-75.179761)"
           id="g1044-0-6-9">
          <g
             style="stroke:#7b7a7a;stroke-width:0.1;stroke-miterlimit:4;stroke-dasharray:none;stroke-opacity:1"
             id="g1030-8-1-6">
            <g
               style="stroke:#7b7a7a;stroke-width:0.1;stroke-miterlimit:4;stroke-dasharray:none;stroke-opacity:1"
               id="g1017-7-9-0"
               transform="translate(-11.440713,68.415461)">
              <circle
                 style="fill:#b3b3b3;stroke:#7b7a7a;stroke-width:0.1;stroke-linecap:round;stroke-linejoin:round;stroke-miterlimit:4;stroke-dasharray:none;stroke-opacity:1;stop-color:#000000"
                 id="path955-4-3-3-1"
                 cx="113.23688"
                 cy="159.42888"
                 r="7.9375" />
              <circle
                 r="7.9375"
                 cy="158.92128"
                 cx="112.68587"
                 id="path955-8-4-2"
                 style="fill:#000000;stroke:#7b7a7a;stroke-width:0.1;stroke-linecap:round;stroke-linejoin:round;stroke-miterlimit:4;stroke-dasharray:none;stroke-opacity:1;stop-color:#000000" />
              <text
                 id="text953-4-7-3"
                 y="163.24483"
                 x="108.19682"
                 style="font-style:normal;font-variant:normal;font-weight:normal;font-stretch:normal;font-size:14.1111px;line-height:1.25;font-family:sans-serif;-inkscape-font-specification:'sans-serif Normal';font-variant-ligatures:normal;font-variant-caps:normal;font-variant-numeric:normal;font-variant-east-asian:normal;fill:#ffffff;fill-opacity:1;stroke:#7b7a7a;stroke-width:0.1;stroke-miterlimit:4;stroke-dasharray:none;stroke-opacity:1"
                 xml:space="preserve"><tspan
                   style="font-style:normal;font-variant:normal;font-weight:normal;font-stretch:normal;font-size:14.1111px;font-family:sans-serif;-inkscape-font-specification:'sans-serif Normal';font-variant-ligatures:normal;font-variant-caps:normal;font-variant-numeric:normal;font-variant-east-asian:normal;fill:#ffffff;stroke:#7b7a7a;stroke-width:0.1;stroke-miterlimit:4;stroke-dasharray:none;stroke-opacity:1"
                   y="163.24483"
                   x="108.19682"
                   id="tspan951-5-9-2"
                   sodipodi:role="line">$</tspan></text>
            </g>
          </g>
        </g>
        <g
           style="stroke:#7b7a7a;stroke-width:0.1;stroke-miterlimit:4;stroke-dasharray:none;stroke-opacity:1"
           id="g1044-0-2-8-1"
           transform="translate(214.11634,-76.238091)">
          <g
             style="stroke:#7b7a7a;stroke-width:0.1;stroke-miterlimit:4;stroke-dasharray:none;stroke-opacity:1"
             id="g1030-8-9-0-1">
            <g
               style="stroke:#7b7a7a;stroke-width:0.1;stroke-miterlimit:4;stroke-dasharray:none;stroke-opacity:1"
               transform="translate(-11.440713,68.415461)"
               id="g1017-7-0-7-0">
              <circle
                 r="7.9375"
                 cy="159.42888"
                 cx="113.23688"
                 id="path955-4-3-9-5-1"
                 style="fill:#b3b3b3;stroke:#7b7a7a;stroke-width:0.1;stroke-linecap:round;stroke-linejoin:round;stroke-miterlimit:4;stroke-dasharray:none;stroke-opacity:1;stop-color:#000000" />
              <circle
                 style="fill:#000000;stroke:#7b7a7a;stroke-width:0.1;stroke-linecap:round;stroke-linejoin:round;stroke-miterlimit:4;stroke-dasharray:none;stroke-opacity:1;stop-color:#000000"
                 id="path955-8-8-8-3"
                 cx="112.68587"
                 cy="158.92128"
                 r="7.9375" />
              <text
                 xml:space="preserve"
                 style="font-style:normal;font-variant:normal;font-weight:normal;font-stretch:normal;font-size:14.1111px;line-height:1.25;font-family:sans-serif;-inkscape-font-specification:'sans-serif Normal';font-variant-ligatures:normal;font-variant-caps:normal;font-variant-numeric:normal;font-variant-east-asian:normal;fill:#ffffff;fill-opacity:1;stroke:#7b7a7a;stroke-width:0.1;stroke-miterlimit:4;stroke-dasharray:none;stroke-opacity:1"
                 x="108.19682"
                 y="163.24483"
                 id="text953-4-0-4-80"><tspan
                   sodipodi:role="line"
                   id="tspan951-5-5-2-0"
                   x="108.19682"
                   y="163.24483"
                   style="font-style:normal;font-variant:normal;font-weight:normal;font-stretch:normal;font-size:14.1111px;font-family:sans-serif;-inkscape-font-specification:'sans-serif Normal';font-variant-ligatures:normal;font-variant-caps:normal;font-variant-numeric:normal;font-variant-east-asian:normal;fill:#ffffff;stroke:#7b7a7a;stroke-width:0.1;stroke-miterlimit:4;stroke-dasharray:none;stroke-opacity:1">$</tspan></text>
            </g>
          </g>
        </g>
      </g>
      <g
         style="stroke:#7b7a7a;stroke-width:0.1;stroke-miterlimit:4;stroke-dasharray:none;stroke-opacity:1"
         transform="translate(-5.2916701,-10.054166)"
         id="g1861-0-9">
        <g
           style="stroke:#7b7a7a;stroke-width:0.1;stroke-miterlimit:4;stroke-dasharray:none;stroke-opacity:1"
           transform="translate(215.70384,-73.063091)"
           id="g1044-0-7-4">
          <g
             style="stroke:#7b7a7a;stroke-width:0.1;stroke-miterlimit:4;stroke-dasharray:none;stroke-opacity:1"
             id="g1030-8-0-2">
            <g
               style="stroke:#7b7a7a;stroke-width:0.1;stroke-miterlimit:4;stroke-dasharray:none;stroke-opacity:1"
               id="g1017-7-7-4"
               transform="translate(-11.440713,68.415461)">
              <circle
                 style="fill:#b3b3b3;stroke:#7b7a7a;stroke-width:0.1;stroke-linecap:round;stroke-linejoin:round;stroke-miterlimit:4;stroke-dasharray:none;stroke-opacity:1;stop-color:#000000"
                 id="path955-4-3-6-0"
                 cx="113.23688"
                 cy="159.42888"
                 r="7.9375" />
              <circle
                 r="7.9375"
                 cy="158.92128"
                 cx="112.68587"
                 id="path955-8-82-2"
                 style="fill:#000000;stroke:#7b7a7a;stroke-width:0.1;stroke-linecap:round;stroke-linejoin:round;stroke-miterlimit:4;stroke-dasharray:none;stroke-opacity:1;stop-color:#000000" />
              <text
                 id="text953-4-3-9"
                 y="163.24483"
                 x="108.19682"
                 style="font-style:normal;font-variant:normal;font-weight:normal;font-stretch:normal;font-size:14.1111px;line-height:1.25;font-family:sans-serif;-inkscape-font-specification:'sans-serif Normal';font-variant-ligatures:normal;font-variant-caps:normal;font-variant-numeric:normal;font-variant-east-asian:normal;fill:#ffffff;fill-opacity:1;stroke:#7b7a7a;stroke-width:0.1;stroke-miterlimit:4;stroke-dasharray:none;stroke-opacity:1"
                 xml:space="preserve"><tspan
                   style="font-style:normal;font-variant:normal;font-weight:normal;font-stretch:normal;font-size:14.1111px;font-family:sans-serif;-inkscape-font-specification:'sans-serif Normal';font-variant-ligatures:normal;font-variant-caps:normal;font-variant-numeric:normal;font-variant-east-asian:normal;fill:#ffffff;stroke:#7b7a7a;stroke-width:0.1;stroke-miterlimit:4;stroke-dasharray:none;stroke-opacity:1"
                   y="163.24483"
                   x="108.19682"
                   id="tspan951-5-90-7"
                   sodipodi:role="line">$</tspan></text>
            </g>
          </g>
        </g>
        <g
           style="stroke:#7b7a7a;stroke-width:0.1;stroke-miterlimit:4;stroke-dasharray:none;stroke-opacity:1"
           id="g1044-0-2-3-9"
           transform="translate(215.17467,-74.121424)">
          <g
             style="stroke:#7b7a7a;stroke-width:0.1;stroke-miterlimit:4;stroke-dasharray:none;stroke-opacity:1"
             id="g1030-8-9-8-2">
            <g
               style="stroke:#7b7a7a;stroke-width:0.1;stroke-miterlimit:4;stroke-dasharray:none;stroke-opacity:1"
               transform="translate(-11.440713,68.415461)"
               id="g1017-7-0-3-2">
              <circle
                 r="7.9375"
                 cy="159.42888"
                 cx="113.23688"
                 id="path955-4-3-9-1-3"
                 style="fill:#b3b3b3;stroke:#7b7a7a;stroke-width:0.1;stroke-linecap:round;stroke-linejoin:round;stroke-miterlimit:4;stroke-dasharray:none;stroke-opacity:1;stop-color:#000000" />
              <circle
                 style="fill:#000000;stroke:#7b7a7a;stroke-width:0.1;stroke-linecap:round;stroke-linejoin:round;stroke-miterlimit:4;stroke-dasharray:none;stroke-opacity:1;stop-color:#000000"
                 id="path955-8-8-0-1"
                 cx="112.68587"
                 cy="158.92128"
                 r="7.9375" />
              <text
                 xml:space="preserve"
                 style="font-style:normal;font-variant:normal;font-weight:normal;font-stretch:normal;font-size:14.1111px;line-height:1.25;font-family:sans-serif;-inkscape-font-specification:'sans-serif Normal';font-variant-ligatures:normal;font-variant-caps:normal;font-variant-numeric:normal;font-variant-east-asian:normal;fill:#ffffff;fill-opacity:1;stroke:#7b7a7a;stroke-width:0.1;stroke-miterlimit:4;stroke-dasharray:none;stroke-opacity:1"
                 x="108.19682"
                 y="163.24483"
                 id="text953-4-0-0-3"><tspan
                   sodipodi:role="line"
                   id="tspan951-5-5-8-2"
                   x="108.19682"
                   y="163.24483"
                   style="font-style:normal;font-variant:normal;font-weight:normal;font-stretch:normal;font-size:14.1111px;font-family:sans-serif;-inkscape-font-specification:'sans-serif Normal';font-variant-ligatures:normal;font-variant-caps:normal;font-variant-numeric:normal;font-variant-east-asian:normal;fill:#ffffff;stroke:#7b7a7a;stroke-width:0.1;stroke-miterlimit:4;stroke-dasharray:none;stroke-opacity:1">$</tspan></text>
            </g>
          </g>
        </g>
        <g
           style="stroke:#7b7a7a;stroke-width:0.1;stroke-miterlimit:4;stroke-dasharray:none;stroke-opacity:1"
           id="g1044-0-6-0-1"
           transform="translate(214.64551,-75.179761)">
          <g
             style="stroke:#7b7a7a;stroke-width:0.1;stroke-miterlimit:4;stroke-dasharray:none;stroke-opacity:1"
             id="g1030-8-1-4-6">
            <g
               style="stroke:#7b7a7a;stroke-width:0.1;stroke-miterlimit:4;stroke-dasharray:none;stroke-opacity:1"
               transform="translate(-11.440713,68.415461)"
               id="g1017-7-9-7-8">
              <circle
                 r="7.9375"
                 cy="159.42888"
                 cx="113.23688"
                 id="path955-4-3-3-6-1"
                 style="fill:#b3b3b3;stroke:#7b7a7a;stroke-width:0.1;stroke-linecap:round;stroke-linejoin:round;stroke-miterlimit:4;stroke-dasharray:none;stroke-opacity:1;stop-color:#000000" />
              <circle
                 style="fill:#000000;stroke:#7b7a7a;stroke-width:0.1;stroke-linecap:round;stroke-linejoin:round;stroke-miterlimit:4;stroke-dasharray:none;stroke-opacity:1;stop-color:#000000"
                 id="path955-8-4-1-0"
                 cx="112.68587"
                 cy="158.92128"
                 r="7.9375" />
              <text
                 xml:space="preserve"
                 style="font-style:normal;font-variant:normal;font-weight:normal;font-stretch:normal;font-size:14.1111px;line-height:1.25;font-family:sans-serif;-inkscape-font-specification:'sans-serif Normal';font-variant-ligatures:normal;font-variant-caps:normal;font-variant-numeric:normal;font-variant-east-asian:normal;fill:#ffffff;fill-opacity:1;stroke:#7b7a7a;stroke-width:0.1;stroke-miterlimit:4;stroke-dasharray:none;stroke-opacity:1"
                 x="108.19682"
                 y="163.24483"
                 id="text953-4-7-6-6"><tspan
                   sodipodi:role="line"
                   id="tspan951-5-9-1-0"
                   x="108.19682"
                   y="163.24483"
                   style="font-style:normal;font-variant:normal;font-weight:normal;font-stretch:normal;font-size:14.1111px;font-family:sans-serif;-inkscape-font-specification:'sans-serif Normal';font-variant-ligatures:normal;font-variant-caps:normal;font-variant-numeric:normal;font-variant-east-asian:normal;fill:#ffffff;stroke:#7b7a7a;stroke-width:0.1;stroke-miterlimit:4;stroke-dasharray:none;stroke-opacity:1">$</tspan></text>
            </g>
          </g>
        </g>
        <g
           style="stroke:#7b7a7a;stroke-width:0.1;stroke-miterlimit:4;stroke-dasharray:none;stroke-opacity:1"
           transform="translate(214.11634,-76.238091)"
           id="g1044-0-2-8-4-4">
          <g
             style="stroke:#7b7a7a;stroke-width:0.1;stroke-miterlimit:4;stroke-dasharray:none;stroke-opacity:1"
             id="g1030-8-9-0-9-9">
            <g
               style="stroke:#7b7a7a;stroke-width:0.1;stroke-miterlimit:4;stroke-dasharray:none;stroke-opacity:1"
               id="g1017-7-0-7-6-9"
               transform="translate(-11.440713,68.415461)">
              <circle
                 style="fill:#b3b3b3;stroke:#7b7a7a;stroke-width:0.1;stroke-linecap:round;stroke-linejoin:round;stroke-miterlimit:4;stroke-dasharray:none;stroke-opacity:1;stop-color:#000000"
                 id="path955-4-3-9-5-4-4"
                 cx="113.23688"
                 cy="159.42888"
                 r="7.9375" />
              <circle
                 r="7.9375"
                 cy="158.92128"
                 cx="112.68587"
                 id="path955-8-8-8-2-5"
                 style="fill:#000000;stroke:#7b7a7a;stroke-width:0.1;stroke-linecap:round;stroke-linejoin:round;stroke-miterlimit:4;stroke-dasharray:none;stroke-opacity:1;stop-color:#000000" />
              <text
                 id="text953-4-0-4-8-0"
                 y="163.24483"
                 x="108.19682"
                 style="font-style:normal;font-variant:normal;font-weight:normal;font-stretch:normal;font-size:14.1111px;line-height:1.25;font-family:sans-serif;-inkscape-font-specification:'sans-serif Normal';font-variant-ligatures:normal;font-variant-caps:normal;font-variant-numeric:normal;font-variant-east-asian:normal;fill:#ffffff;fill-opacity:1;stroke:#7b7a7a;stroke-width:0.1;stroke-miterlimit:4;stroke-dasharray:none;stroke-opacity:1"
                 xml:space="preserve"><tspan
                   style="font-style:normal;font-variant:normal;font-weight:normal;font-stretch:normal;font-size:14.1111px;font-family:sans-serif;-inkscape-font-specification:'sans-serif Normal';font-variant-ligatures:normal;font-variant-caps:normal;font-variant-numeric:normal;font-variant-east-asian:normal;fill:#ffffff;stroke:#7b7a7a;stroke-width:0.1;stroke-miterlimit:4;stroke-dasharray:none;stroke-opacity:1"
                   y="163.24483"
                   x="108.19682"
                   id="tspan951-5-5-2-4-6"
                   sodipodi:role="line">$</tspan></text>
            </g>
          </g>
        </g>
      </g>
    </g>
    <path
       transform="scale(-1,1)"
       d="m -291.04166,195.79167 c 0.53064,0 0.2618,0.71528 0,0.88195 -0.70944,0.45165 -1.54638,-0.19864 -1.76389,-0.88195 -0.38906,-1.22228 0.5984,-2.39851 1.76389,-2.64583 1.71042,-0.36296 3.26583,0.99994 3.52778,2.64583 0.34915,2.19372 -1.40164,4.13902 -3.52778,4.40973 -2.67552,0.34066 -5.01512,-1.80331 -5.29167,-4.40973 -0.33494,-3.15672 2.20493,-5.89289 5.29167,-6.17361 3.63762,-0.33083 6.7717,2.60651 7.05556,6.17361 0.0208,0.26186 0.027,0.52487 0.0186,0.78741"
       sodipodi:t0="0"
       sodipodi:argument="-18.849556"
       sodipodi:radius="7.1178007"
       sodipodi:revolution="2.0176427"
       sodipodi:expansion="1"
       sodipodi:cy="195.79167"
       sodipodi:cx="-291.04166"
       id="path2365"
       style="fill:none;fill-rule:evenodd;stroke:#000000;stroke-width:0.865;stroke-miterlimit:4;stroke-dasharray:none;marker-end:url(#TriangleOutM)"
       sodipodi:type="spiral" />
  </g>
</svg>
